[2019-09-09T06:02:34.781] [INFO] startup - http server started
[2019-09-09T09:53:30.664] [INFO] startup - http server started
[2019-09-09T10:26:44.343] [INFO] startup - http server started
[2019-09-09T10:28:22.656] [INFO] startup - http server started
[2019-09-09T10:29:56.174] [INFO] startup - http server started
[2019-09-09T10:30:51.873] [INFO] startup - http server started
[2019-09-09T10:31:19.202] [INFO] startup - http server started
[2019-09-09T10:31:27.348] [INFO] startup - http server started
[2019-09-09T10:32:01.535] [INFO] startup - http server started
[2019-09-09T10:32:52.498] [INFO] startup - http server started
[2019-09-09T10:35:53.856] [INFO] startup - http server started
[2019-09-09T10:44:08.618] [INFO] startup - http server started
[2019-09-09T16:54:37.536] [INFO] startup - http server started
[2019-09-10T10:17:12.729] [INFO] startup - http server started
[2019-09-10T12:26:22.124] [INFO] startup - http server started
[2019-09-10T12:32:03.853] [INFO] startup - http server started
[2019-09-10T14:10:31.928] [INFO] startup - http server started
[2019-09-10T14:11:46.415] [INFO] startup - http server started
[2019-09-10T14:47:45.343] [INFO] startup - http server started
[2019-09-10T14:56:58.051] [INFO] startup - http server started
[2019-09-10T15:38:37.188] [INFO] startup - http server started
[2019-09-10T15:39:55.832] [INFO] startup - http server started
[2019-09-10T16:10:02.579] [INFO] startup - http server started
[2019-09-11T09:28:19.269] [INFO] startup - http server started
[2019-09-11T10:58:40.109] [INFO] startup - http server started
[2019-09-11T11:15:25.772] [INFO] startup - http server started
[2019-09-11T17:03:47.080] [INFO] startup - http server started
[2019-09-11T17:06:26.712] [INFO] startup - http server started
[2019-09-11T17:29:05.372] [INFO] startup - http server started
[2019-09-11T17:48:09.911] [INFO] startup - http server started
[2019-09-11T17:54:29.441] [INFO] startup - http server started
[2019-09-11T17:58:27.014] [INFO] startup - http server started
[2019-09-12T10:05:00.754] [INFO] startup - http server started
[2019-09-12T15:26:48.187] [INFO] startup - http server started
[2019-09-12T16:44:01.789] [INFO] startup - http server started
[2019-09-12T16:45:55.481] [INFO] startup - http server started
[2019-09-12T16:48:16.182] [INFO] startup - http server started
[2019-09-12T16:50:11.173] [INFO] startup - http server started
[2019-09-12T17:07:07.583] [INFO] startup - http server started
[2019-09-12T17:14:15.088] [INFO] startup - http server started
[2019-09-12T17:59:55.683] [INFO] startup - http server started
[2019-09-12T18:00:45.153] [INFO] startup - http server started
[2019-09-12T18:06:36.003] [INFO] startup - http server started
[2019-09-12T18:18:12.410] [INFO] startup - http server started
[2019-09-12T18:24:42.709] [INFO] startup - http server started
[2019-09-12T18:25:21.149] [INFO] startup - http server started
[2019-09-12T18:25:42.501] [INFO] startup - http server started
[2019-09-12T18:25:59.767] [INFO] startup - http server started
[2019-09-12T18:27:32.078] [INFO] startup - http server started
[2019-09-12T19:08:35.020] [INFO] startup - http server started
[2019-09-12T19:17:26.559] [INFO] startup - http server started
[2019-09-16T09:54:10.961] [INFO] startup - http server started
[2019-09-16T09:54:21.267] [INFO] startup - http server started
[2019-09-16T10:22:23.268] [INFO] startup - http server started
[2019-09-16T10:22:40.474] [INFO] startup - http server started
[2019-09-16T10:28:02.221] [INFO] startup - http server started
[2019-09-16T11:22:57.044] [INFO] startup - http server started
[2019-09-16T11:24:03.439] [INFO] startup - http server started
[2019-09-16T11:31:47.703] [INFO] startup - http server started
[2019-09-16T11:53:56.395] [INFO] startup - http server started
[2019-09-16T12:01:14.022] [INFO] startup - http server started
[2019-09-16T12:02:30.581] [INFO] startup - http server started
[2019-09-16T12:04:12.076] [INFO] startup - http server started
[2019-09-16T12:04:51.681] [INFO] startup - http server started
[2019-09-16T12:06:04.772] [INFO] startup - http server started
[2019-09-16T12:08:34.863] [INFO] startup - http server started
[2019-09-16T12:09:05.530] [INFO] startup - http server started
[2019-09-16T12:13:03.573] [INFO] startup - http server started
[2019-09-16T12:13:12.150] [INFO] startup - http server started
[2019-09-16T12:17:38.361] [INFO] startup - http server started
[2019-09-16T12:23:54.450] [INFO] startup - http server started
[2019-09-16T12:25:52.105] [INFO] startup - http server started
[2019-09-16T12:26:13.784] [INFO] startup - http server started
[2019-09-16T12:29:05.937] [INFO] startup - http server started
[2019-09-16T12:29:57.199] [INFO] startup - http server started
[2019-09-16T12:31:06.142] [INFO] startup - http server started
[2019-09-16T12:31:28.617] [INFO] startup - http server started
[2019-09-16T12:32:03.260] [INFO] startup - http server started
[2019-09-16T12:33:38.532] [INFO] startup - http server started
[2019-09-16T12:38:19.450] [INFO] startup - http server started
[2019-09-16T12:38:55.664] [INFO] startup - http server started
[2019-09-16T12:39:35.514] [INFO] startup - http server started
[2019-09-16T12:39:55.930] [INFO] startup - http server started
[2019-09-16T12:40:36.171] [INFO] startup - http server started
[2019-09-16T12:42:45.753] [INFO] startup - http server started
[2019-09-16T12:44:18.446] [INFO] startup - http server started
[2019-09-16T12:44:45.094] [INFO] startup - http server started
[2019-09-16T12:56:08.754] [INFO] startup - http server started
[2019-09-16T12:56:24.822] [INFO] startup - http server started
[2019-09-16T13:02:38.270] [INFO] startup - http server started
[2019-09-16T13:03:15.378] [INFO] startup - http server started
[2019-09-16T13:08:15.807] [INFO] startup - http server started
[2019-09-17T09:47:34.465] [INFO] startup - http server started
[2019-09-17T09:47:47.301] [INFO] startup - http server started
[2019-09-17T11:38:05.456] [INFO] startup - http server started
[2019-09-17T11:39:09.517] [INFO] startup - http server started
[2019-09-17T11:39:39.285] [INFO] startup - http server started
[2019-09-17T11:41:26.633] [INFO] startup - http server started
[2019-09-17T11:41:59.326] [INFO] startup - http server started
[2019-09-17T11:45:00.806] [INFO] startup - http server started
[2019-09-17T11:52:31.310] [INFO] startup - http server started
[2019-09-17T11:57:06.929] [INFO] startup - http server started
[2019-09-17T12:21:48.626] [INFO] startup - http server started
[2019-09-17T15:09:09.014] [INFO] startup - http server started
[2019-09-17T15:43:23.655] [INFO] startup - http server started
[2019-09-17T16:56:14.343] [INFO] startup - http server started
[2019-09-17T16:56:22.627] [INFO] startup - http server started
[2019-09-17T17:08:48.574] [INFO] startup - http server started
[2019-09-17T17:51:59.270] [INFO] startup - http server started
[2019-09-18T09:31:16.148] [INFO] startup - http server started
[2019-09-18T10:07:22.049] [INFO] startup - http server started
[2019-09-18T10:21:02.941] [INFO] startup - http server started
